{
  "_format": "hh-sol-artifact-1",
  "contractName": "SafeMath",
  "sourceName": "contracts/libraries/SafeMath.sol",
  "abi": [],
  "bytecode": "0x60566037600b82828239805160001a607314602a57634e487b7160e01b600052600060045260246000fd5b30600052607381538281f3fe73000000000000000000000000000000000000000030146080604052600080fdfea26469706673582212209e1a3013a0442beeeda1db4146008e1cc0f055fdd4e0649c1376fc435edc975664736f6c634300080b0033",
  "deployedBytecode": "0x73000000000000000000000000000000000000000030146080604052600080fdfea26469706673582212209e1a3013a0442beeeda1db4146008e1cc0f055fdd4e0649c1376fc435edc975664736f6c634300080b0033",
  "linkReferences": {},
  "deployedLinkReferences": {}
}
